^C:\USERS\TUDOR\DESKTOP\WISEMARIUS-CLOUD-COMPUTING-BOILERPLATE-290A9F871AE5\FRAMEWORK\SOURCE\REQUEST.CPP
/c /I"C:\USERS\TUDOR\DESKTOP\WISEMARIUS-CLOUD-COMPUTING-BOILERPLATE-290A9F871AE5\FRAMEWORK\INCLUDE" /IC:\BOOST\BOOST_1_68_0 /Zi /nologo /W3 /WX- /diagnostics:classic /Od /Ob0 /Oy- /D WIN32 /D _WINDOWS /D "CMAKE_INTDIR=\"Debug\"" /D _MBCS /Gm- /EHsc /RTC1 /MDd /GS /fp:precise /Zc:wchar_t /Zc:forScope /Zc:inline /GR /Fo"FRAMEWORK.DIR\DEBUG\\" /Fd"FRAMEWORK.DIR\DEBUG\FRAMEWORK.PDB" /Gd /TP /analyze- C:\USERS\TUDOR\DESKTOP\WISEMARIUS-CLOUD-COMPUTING-BOILERPLATE-290A9F871AE5\FRAMEWORK\SOURCE\REQUEST.CPP
^C:\USERS\TUDOR\DESKTOP\WISEMARIUS-CLOUD-COMPUTING-BOILERPLATE-290A9F871AE5\FRAMEWORK\SOURCE\RESPONSE.CPP
/c /I"C:\USERS\TUDOR\DESKTOP\WISEMARIUS-CLOUD-COMPUTING-BOILERPLATE-290A9F871AE5\FRAMEWORK\INCLUDE" /IC:\BOOST\BOOST_1_68_0 /Zi /nologo /W3 /WX- /diagnostics:classic /Od /Ob0 /Oy- /D WIN32 /D _WINDOWS /D "CMAKE_INTDIR=\"Debug\"" /D _MBCS /Gm- /EHsc /RTC1 /MDd /GS /fp:precise /Zc:wchar_t /Zc:forScope /Zc:inline /GR /Fo"FRAMEWORK.DIR\DEBUG\\" /Fd"FRAMEWORK.DIR\DEBUG\FRAMEWORK.PDB" /Gd /TP /analyze- C:\USERS\TUDOR\DESKTOP\WISEMARIUS-CLOUD-COMPUTING-BOILERPLATE-290A9F871AE5\FRAMEWORK\SOURCE\RESPONSE.CPP
